{"data":[{"id":15502557,"platform_id":1,"match_id":"56e47650-f763-4058-99e9-a7959da5eb39","queue_id":"default","match_start":"2025-02-10T04:42:47.000000Z","match_end":"2025-02-10T05:00:30.000000Z","team_id":"9","player_id":"81a7e513eebb4ede94439bf89d059520","hero_asset_id":"hero:hookguy","party_id":"b008bbd3-3dc3-4a7d-a3a2-9e71a9a0e49e","is_ranked":false,"placement":2,"survival_duration":1063.3452,"character_level":15,"referral_code":null,"stats":{"Kills":12,"Deaths":1,"Knocks":12,"Assists":4,"Knocked":1,"Revives":1,"CreepKills":15,"DamageDone":53903.914,"Resurrects":4,"DamageTaken":22757.135,"HealingGiven":2476.08,"MaxKillStreak":3,"HeroDamageDone":18828.707,"MaxKnockStreak":2,"GoldFromEnemies":3058,"HealingReceived":19587.785,"HeroDamageTaken":20237.643,"GoldFromMonsters":4910,"GoldFromTreasure":600,"HealingGivenSelf":19240.332,"EffectiveDamageDone":51267.363,"EffectiveDamageTaken":22744.195,"HeroEffectiveDamageDone":18143.922,"HeroEffectiveDamageTaken":20224.703},"created_at":"2025-02-10T05:01:45.000000Z","updated_at":"2025-02-10T05:01:45.000000Z","player_id_encoded":"03874b276c5de0c26ee4c224f7796640","platform":{"id":1,"code":"steam"},"hero":{"asset_id":"hero:hookguy","head_image_url":"https:\/\/assets.supervive.app\/191ad0f3-550d-46d8-aaae-f2d8f37c65e0\/assets\/hunters_squared\/kingpin.webp"}},{"id":15502600,"platform_id":1,"match_id":"7a1aa9d8-715f-4e88-978d-5a6be73fc484","queue_id":"default","match_start":"2025-02-10T04:19:19.000000Z","match_end":"2025-02-10T04:30:59.000000Z","team_id":"5","player_id":"81a7e513eebb4ede94439bf89d059520","hero_asset_id":"hero:hookguy","party_id":"1ac89061-4a0e-47e1-b90b-93cf84dd663b","is_ranked":false,"placement":1,"survival_duration":703.84125,"character_level":15,"referral_code":null,"stats":{"Kills":19,"Knocks":20,"Assists":3,"Knocked":1,"Revived":1,"CreepKills":31,"DamageDone":105442.375,"DamageTaken":11962.832,"MaxKillStreak":4,"HeroDamageDone":27691.285,"MaxKnockStreak":4,"GoldFromEnemies":623,"HealingReceived":13123.771,"HeroDamageTaken":10045.439,"GoldFromMonsters":6690,"GoldFromTreasure":400,"HealingGivenSelf":6821.9595,"EffectiveDamageDone":100210.086,"EffectiveDamageTaken":11918.063,"ShieldMitigatedDamage":347.52484,"HeroEffectiveDamageDone":26988.545,"HeroEffectiveDamageTaken":10000.671},"created_at":"2025-02-10T05:02:00.000000Z","updated_at":"2025-02-10T05:02:00.000000Z","player_id_encoded":"03874b276c5de0c26ee4c224f7796640","platform":{"id":1,"code":"steam"},"hero":{"asset_id":"hero:hookguy","head_image_url":"https:\/\/assets.supervive.app\/191ad0f3-550d-46d8-aaae-f2d8f37c65e0\/assets\/hunters_squared\/kingpin.webp"}},{"id":15502619,"platform_id":1,"match_id":"7ec38a06-2107-4000-ada8-712c9605f39a","queue_id":"default","match_start":"2025-02-10T03:58:29.000000Z","match_end":"2025-02-10T04:12:06.000000Z","team_id":"3","player_id":"81a7e513eebb4ede94439bf89d059520","hero_asset_id":"hero:hookguy","party_id":"c8a8507d-774f-4232-9c8c-df4703a2348f","is_ranked":false,"placement":2,"survival_duration":816.80396,"character_level":15,"referral_code":null,"stats":{"Kills":5,"Deaths":3,"Knocks":6,"Assists":2,"Knocked":3,"Revives":1,"CreepKills":37,"DamageDone":130864.79,"Resurrects":6,"DamageTaken":13285.978,"Resurrected":2,"HealingGiven":2641.58,"MaxKillStreak":2,"HeroDamageDone":10848.487,"MaxKnockStreak":3,"GoldFromEnemies":3595,"HealingReceived":8382.161,"HeroDamageTaken":12576.765,"GoldFromMonsters":6200,"GoldFromTreasure":700,"HealingGivenSelf":8382.161,"EffectiveDamageDone":112896.23,"EffectiveDamageTaken":13182.675,"HeroEffectiveDamageDone":10715.06,"HeroEffectiveDamageTaken":12473.464},"created_at":"2025-02-10T05:02:10.000000Z","updated_at":"2025-02-10T05:02:10.000000Z","player_id_encoded":"03874b276c5de0c26ee4c224f7796640","platform":{"id":1,"code":"steam"},"hero":{"asset_id":"hero:hookguy","head_image_url":"https:\/\/assets.supervive.app\/191ad0f3-550d-46d8-aaae-f2d8f37c65e0\/assets\/hunters_squared\/kingpin.webp"}},{"id":15502658,"platform_id":1,"match_id":"ae9ddd55-058f-4cbd-b42f-d7a48da4a03f","queue_id":"default","match_start":"2025-02-10T03:25:34.000000Z","match_end":"2025-02-10T03:40:46.000000Z","team_id":"2","player_id":"81a7e513eebb4ede94439bf89d059520","hero_asset_id":"hero:hookguy","party_id":"c8a8507d-774f-4232-9c8c-df4703a2348f","is_ranked":false,"placement":3,"survival_duration":836.0767,"character_level":15,"referral_code":null,"stats":{"Kills":5,"Deaths":2,"Knocks":5,"Assists":2,"Knocked":3,"Revived":1,"CreepKills":54,"DamageDone":115217.51,"DamageTaken":14403.405,"Resurrected":1,"HealingGiven":100,"MaxKillStreak":1,"HeroDamageDone":10457.203,"MaxKnockStreak":1,"GoldFromEnemies":3351,"HealingReceived":10346.802,"HeroDamageTaken":12659.904,"GoldFromMonsters":11180,"HealingGivenSelf":9461.799,"EffectiveDamageDone":107616.37,"EffectiveDamageTaken":14018.782,"HeroEffectiveDamageDone":10269.124,"HeroEffectiveDamageTaken":12275.28},"created_at":"2025-02-10T05:02:23.000000Z","updated_at":"2025-02-10T05:02:23.000000Z","player_id_encoded":"03874b276c5de0c26ee4c224f7796640","platform":{"id":1,"code":"steam"},"hero":{"asset_id":"hero:hookguy","head_image_url":"https:\/\/assets.supervive.app\/191ad0f3-550d-46d8-aaae-f2d8f37c65e0\/assets\/hunters_squared\/kingpin.webp"}},{"id":15495941,"platform_id":1,"match_id":"60fed62c-970b-4d7a-976f-eb29af4f00ca","queue_id":"default","match_start":"2025-02-10T03:08:22.000000Z","match_end":"2025-02-10T03:26:25.000000Z","team_id":"1","player_id":"81a7e513eebb4ede94439bf89d059520","hero_asset_id":"hero:backlinehealer","party_id":"c8a8507d-774f-4232-9c8c-df4703a2348f","is_ranked":false,"placement":7,"survival_duration":481.37915,"character_level":10,"referral_code":null,"stats":{"Kills":2,"Deaths":1,"Knocks":2,"Assists":2,"Knocked":1,"CreepKills":18,"DamageDone":80340.24,"Resurrects":1,"DamageTaken":7556.895,"HealingGiven":1533.8367,"MaxKillStreak":1,"HeroDamageDone":5611.6104,"MaxKnockStreak":1,"GoldFromEnemies":1075,"HealingReceived":6117.5024,"HeroDamageTaken":6640.7725,"GoldFromMonsters":2050,"GoldFromTreasure":2350,"HealingGivenSelf":4139.0527,"EffectiveDamageDone":76055.67,"EffectiveDamageTaken":7556.895,"ShieldMitigatedDamage":136.66331,"HeroEffectiveDamageDone":5311.503,"HeroEffectiveDamageTaken":6640.7725},"created_at":"2025-02-10T03:32:57.000000Z","updated_at":"2025-02-10T03:32:57.000000Z","player_id_encoded":"03874b276c5de0c26ee4c224f7796640","platform":{"id":1,"code":"steam"},"hero":{"asset_id":"hero:backlinehealer","head_image_url":"https:\/\/assets.supervive.app\/191ad0f3-550d-46d8-aaae-f2d8f37c65e0\/assets\/hunters_squared\/zeph.webp"}},{"id":15481960,"platform_id":1,"match_id":"8c446be6-4d24-4d92-85e0-fb0d2315daac","queue_id":"default","match_start":"2025-02-09T23:05:55.000000Z","match_end":"2025-02-09T23:21:05.000000Z","team_id":"9","player_id":"81a7e513eebb4ede94439bf89d059520","hero_asset_id":"hero:backlinehealer","party_id":"29117f36-c0ee-452d-8804-751dfe446710","is_ranked":false,"placement":9,"survival_duration":226.59158,"character_level":2,"referral_code":null,"stats":{"Deaths":1,"Knocked":1,"Resurrects":1},"created_at":"2025-02-09T23:31:27.000000Z","updated_at":"2025-02-09T23:31:27.000000Z","player_id_encoded":"03874b276c5de0c26ee4c224f7796640","platform":{"id":1,"code":"steam"},"hero":{"asset_id":"hero:backlinehealer","head_image_url":"https:\/\/assets.supervive.app\/191ad0f3-550d-46d8-aaae-f2d8f37c65e0\/assets\/hunters_squared\/zeph.webp"}},{"id":15477327,"platform_id":1,"match_id":"4e02d089-9ff0-4e6a-9ca8-f9c0e619fc5e","queue_id":"deathmatch","match_start":"2025-02-09T22:18:42.000000Z","match_end":"2025-02-09T22:19:39.000000Z","team_id":"0","player_id":"81a7e513eebb4ede94439bf89d059520","hero_asset_id":"hero:backlinehealer","party_id":"a9f928fb-d33e-4fe4-acbd-c2067a5f14f8","is_ranked":false,"placement":1,"survival_duration":372.03345,"character_level":15,"referral_code":null,"stats":{"Kills":5,"Deaths":6,"Knocks":6,"Assists":9,"Knocked":7,"Revived":1,"CreepKills":1,"DamageDone":40986.312,"DamageTaken":20485.719,"HealingGiven":13237.731,"MaxKillStreak":1,"HeroDamageDone":24980.154,"MaxKnockStreak":1,"GoldFromEnemies":4600,"HealingReceived":11876.582,"HeroDamageTaken":20485.719,"HealingGivenSelf":10757.848,"EffectiveDamageDone":40105.188,"EffectiveDamageTaken":20006.232,"HeroEffectiveDamageDone":24276.842,"HeroEffectiveDamageTaken":20006.232},"created_at":"2025-02-09T22:30:56.000000Z","updated_at":"2025-02-09T22:30:56.000000Z","player_id_encoded":"03874b276c5de0c26ee4c224f7796640","platform":{"id":1,"code":"steam"},"hero":{"asset_id":"hero:backlinehealer","head_image_url":"https:\/\/assets.supervive.app\/191ad0f3-550d-46d8-aaae-f2d8f37c65e0\/assets\/hunters_squared\/zeph.webp"}},{"id":15477360,"platform_id":1,"match_id":"f2cf0c71-bb64-4b74-8cc9-4bbf3c4f1e5f","queue_id":"deathmatch","match_start":"2025-02-09T22:07:16.000000Z","match_end":"2025-02-09T22:08:39.000000Z","team_id":"1","player_id":"81a7e513eebb4ede94439bf89d059520","hero_asset_id":"hero:beebo","party_id":"a9f928fb-d33e-4fe4-acbd-c2067a5f14f8","is_ranked":false,"placement":2,"survival_duration":376.3578,"character_level":15,"referral_code":null,"stats":{"Kills":1,"Deaths":6,"Knocks":2,"Assists":3,"Knocked":8,"Revived":2,"DamageDone":25225.398,"DamageTaken":19871.54,"MaxKillStreak":1,"HeroDamageDone":15124.909,"MaxKnockStreak":1,"GoldFromEnemies":2000,"HealingReceived":9772.923,"HeroDamageTaken":19871.54,"HealingGivenSelf":6248.245,"EffectiveDamageDone":24622.46,"EffectiveDamageTaken":19317.613,"ShieldMitigatedDamage":1779.7826,"HeroEffectiveDamageDone":14521.973,"HeroEffectiveDamageTaken":19317.613},"created_at":"2025-02-09T22:30:59.000000Z","updated_at":"2025-02-09T22:30:59.000000Z","player_id_encoded":"03874b276c5de0c26ee4c224f7796640","platform":{"id":1,"code":"steam"},"hero":{"asset_id":"hero:beebo","head_image_url":"https:\/\/assets.supervive.app\/191ad0f3-550d-46d8-aaae-f2d8f37c65e0\/assets\/hunters_squared\/beebo.webp"}},{"id":15474166,"platform_id":1,"match_id":"24720488-5980-4672-9266-094aa3b400a3","queue_id":"deathmatch","match_start":"2025-02-09T21:58:01.000000Z","match_end":"2025-02-09T21:59:10.000000Z","team_id":"1","player_id":"81a7e513eebb4ede94439bf89d059520","hero_asset_id":"hero:beebo","party_id":"a9f928fb-d33e-4fe4-acbd-c2067a5f14f8","is_ranked":false,"placement":1,"survival_duration":406.15482,"character_level":15,"referral_code":null,"stats":{"Kills":4,"Deaths":6,"Knocks":5,"Assists":7,"Knocked":6,"Revives":2,"DamageDone":27537.748,"DamageTaken":14511.168,"HealingGiven":2558.3105,"MaxKillStreak":1,"HeroDamageDone":21462.842,"MaxKnockStreak":1,"GoldFromEnemies":4600,"HealingReceived":8003.389,"HeroDamageTaken":14511.168,"HealingGivenSelf":6375.5757,"EffectiveDamageDone":26685.574,"EffectiveDamageTaken":14164.392,"ShieldMitigatedDamage":400,"HeroEffectiveDamageDone":20610.662,"HeroEffectiveDamageTaken":14164.392},"created_at":"2025-02-09T22:01:01.000000Z","updated_at":"2025-02-09T22:01:01.000000Z","player_id_encoded":"03874b276c5de0c26ee4c224f7796640","platform":{"id":1,"code":"steam"},"hero":{"asset_id":"hero:beebo","head_image_url":"https:\/\/assets.supervive.app\/191ad0f3-550d-46d8-aaae-f2d8f37c65e0\/assets\/hunters_squared\/beebo.webp"}},{"id":15474203,"platform_id":1,"match_id":"1ab5af55-343c-4c82-ac9c-75f115f9b678","queue_id":"deathmatch","match_start":"2025-02-09T21:46:54.000000Z","match_end":"2025-02-09T21:48:10.000000Z","team_id":"1","player_id":"81a7e513eebb4ede94439bf89d059520","hero_asset_id":"hero:beebo","party_id":"a9f928fb-d33e-4fe4-acbd-c2067a5f14f8","is_ranked":false,"placement":1,"survival_duration":314.6106,"character_level":15,"referral_code":null,"stats":{"Kills":5,"Deaths":5,"Knocks":5,"Assists":6,"Knocked":5,"DamageDone":37368.65,"DamageTaken":13925.07,"MaxKillStreak":3,"HeroDamageDone":20699.11,"MaxKnockStreak":2,"GoldFromEnemies":4400,"HealingReceived":6203.343,"HeroDamageTaken":13925.07,"HealingGivenSelf":6029.421,"EffectiveDamageDone":36291.984,"EffectiveDamageTaken":13658.583,"ShieldMitigatedDamage":1659.0559,"HeroEffectiveDamageDone":19622.453,"HeroEffectiveDamageTaken":13658.583},"created_at":"2025-02-09T22:01:04.000000Z","updated_at":"2025-02-09T22:01:04.000000Z","player_id_encoded":"03874b276c5de0c26ee4c224f7796640","platform":{"id":1,"code":"steam"},"hero":{"asset_id":"hero:beebo","head_image_url":"https:\/\/assets.supervive.app\/191ad0f3-550d-46d8-aaae-f2d8f37c65e0\/assets\/hunters_squared\/beebo.webp"}},{"id":15455779,"platform_id":1,"match_id":"9390c05d-5630-4da6-8c90-764b123f9841","queue_id":"deathmatch","match_start":"2025-02-09T18:59:00.000000Z","match_end":"2025-02-09T18:59:42.000000Z","team_id":"0","player_id":"81a7e513eebb4ede94439bf89d059520","hero_asset_id":"hero:hookguy","party_id":"3e864ccb-cf7d-4bec-ae94-9646f4e7d9b8","is_ranked":false,"placement":1,"survival_duration":441.2735,"character_level":15,"referral_code":null,"stats":{"Kills":4,"Deaths":8,"Knocks":6,"Assists":7,"Knocked":8,"CreepKills":1,"DamageDone":21002.326,"DamageTaken":30806.822,"Resurrected":1,"MaxKillStreak":1,"HeroDamageDone":19351.783,"MaxKnockStreak":2,"GoldFromEnemies":4600,"HealingReceived":13187.724,"HeroDamageTaken":30806.822,"GoldFromMonsters":280,"HealingGivenSelf":13087.724,"EffectiveDamageDone":20620.955,"EffectiveDamageTaken":30471.22,"HeroEffectiveDamageDone":19024.406,"HeroEffectiveDamageTaken":30471.22},"created_at":"2025-02-09T19:01:29.000000Z","updated_at":"2025-02-09T19:01:29.000000Z","player_id_encoded":"03874b276c5de0c26ee4c224f7796640","platform":{"id":1,"code":"steam"},"hero":{"asset_id":"hero:hookguy","head_image_url":"https:\/\/assets.supervive.app\/191ad0f3-550d-46d8-aaae-f2d8f37c65e0\/assets\/hunters_squared\/kingpin.webp"}},{"id":15455794,"platform_id":1,"match_id":"a3286c47-9fd7-4538-b992-655790d2482f","queue_id":"deathmatch","match_start":"2025-02-09T18:45:41.000000Z","match_end":"2025-02-09T18:47:16.000000Z","team_id":"1","player_id":"81a7e513eebb4ede94439bf89d059520","hero_asset_id":"hero:hookguy","party_id":"3e864ccb-cf7d-4bec-ae94-9646f4e7d9b8","is_ranked":false,"placement":2,"survival_duration":356.55005,"character_level":15,"referral_code":null,"stats":{"Kills":4,"Deaths":8,"Knocks":6,"Knocked":9,"Revived":1,"CreepKills":2,"DamageDone":17822.33,"DamageTaken":28798.828,"Resurrected":2,"MaxKillStreak":1,"HeroDamageDone":16026.504,"MaxKnockStreak":1,"GoldFromEnemies":2400,"HealingReceived":10804.45,"HeroDamageTaken":28798.828,"GoldFromMonsters":140,"HealingGivenSelf":8773,"EffectiveDamageDone":17448.303,"EffectiveDamageTaken":26702.908,"HeroEffectiveDamageDone":15803.383,"HeroEffectiveDamageTaken":26702.908},"created_at":"2025-02-09T19:01:32.000000Z","updated_at":"2025-02-09T19:01:32.000000Z","player_id_encoded":"03874b276c5de0c26ee4c224f7796640","platform":{"id":1,"code":"steam"},"hero":{"asset_id":"hero:hookguy","head_image_url":"https:\/\/assets.supervive.app\/191ad0f3-550d-46d8-aaae-f2d8f37c65e0\/assets\/hunters_squared\/kingpin.webp"}},{"id":15455814,"platform_id":1,"match_id":"e3691188-d1e6-4bad-94f6-5a5c34e28546","queue_id":"deathmatch","match_start":"2025-02-09T18:35:51.000000Z","match_end":"2025-02-09T18:36:47.000000Z","team_id":"1","player_id":"81a7e513eebb4ede94439bf89d059520","hero_asset_id":"hero:backlinehealer","party_id":"3e864ccb-cf7d-4bec-ae94-9646f4e7d9b8","is_ranked":false,"placement":1,"survival_duration":370.0453,"character_level":15,"referral_code":null,"stats":{"Kills":4,"Deaths":6,"Knocks":5,"Assists":8,"Knocked":6,"Revives":3,"DamageDone":30704.736,"DamageTaken":15941.749,"HealingGiven":21187.555,"MaxKillStreak":2,"HeroDamageDone":15367.158,"MaxKnockStreak":1,"GoldFromEnemies":4800,"HealingReceived":10066.561,"HeroDamageTaken":15941.749,"GoldFromMonsters":350,"HealingGivenSelf":9276.561,"EffectiveDamageDone":29406.762,"EffectiveDamageTaken":15385.204,"HeroEffectiveDamageDone":14069.1875,"HeroEffectiveDamageTaken":15385.204},"created_at":"2025-02-09T19:01:37.000000Z","updated_at":"2025-02-09T19:01:37.000000Z","player_id_encoded":"03874b276c5de0c26ee4c224f7796640","platform":{"id":1,"code":"steam"},"hero":{"asset_id":"hero:backlinehealer","head_image_url":"https:\/\/assets.supervive.app\/191ad0f3-550d-46d8-aaae-f2d8f37c65e0\/assets\/hunters_squared\/zeph.webp"}},{"id":15346043,"platform_id":1,"match_id":"3792001e-d0ac-4063-bfd9-ada120ebe2c8","queue_id":"customgame","match_start":"2025-02-09T01:49:57.000000Z","match_end":"2025-02-09T02:08:44.000000Z","team_id":"2","player_id":"81a7e513eebb4ede94439bf89d059520","hero_asset_id":"hero:hookguy","party_id":"f59f7e19-df45-4e67-a219-1f940a4e7d7f","is_ranked":false,"placement":2,"survival_duration":1127.4131,"character_level":15,"referral_code":null,"stats":{"Kills":2,"Deaths":4,"Knocks":3,"Assists":4,"Knocked":4,"CreepKills":27,"DamageDone":130797.15,"Resurrects":1,"DamageTaken":21912.652,"Resurrected":3,"MaxKillStreak":1,"HeroDamageDone":3597.1453,"MaxKnockStreak":1,"GoldFromEnemies":4060,"HealingReceived":13791.26,"HeroDamageTaken":19297.162,"GoldFromMonsters":4280,"HealingGivenSelf":12980.953,"EffectiveDamageDone":129242.9,"EffectiveDamageTaken":20700.506,"HeroEffectiveDamageDone":3561.7332,"HeroEffectiveDamageTaken":18085.014},"created_at":"2025-02-09T02:31:10.000000Z","updated_at":"2025-02-09T02:31:10.000000Z","player_id_encoded":"03874b276c5de0c26ee4c224f7796640","platform":{"id":1,"code":"steam"},"hero":{"asset_id":"hero:hookguy","head_image_url":"https:\/\/assets.supervive.app\/191ad0f3-550d-46d8-aaae-f2d8f37c65e0\/assets\/hunters_squared\/kingpin.webp"}},{"id":15342979,"platform_id":1,"match_id":"54a76b91-f942-4905-b361-98bcd1d61a77","queue_id":"customgame","match_start":"2025-02-09T01:17:58.000000Z","match_end":"2025-02-09T01:36:32.000000Z","team_id":"2","player_id":"81a7e513eebb4ede94439bf89d059520","hero_asset_id":"hero:hookguy","party_id":"f59f7e19-df45-4e67-a219-1f940a4e7d7f","is_ranked":false,"placement":9,"survival_duration":641.1177,"character_level":10,"referral_code":null,"stats":{"Deaths":1,"Assists":3,"Knocked":1,"CreepKills":14,"DamageDone":41596.656,"Resurrects":1,"DamageTaken":6568.3145,"HeroDamageDone":3042.406,"GoldFromEnemies":1384,"HealingReceived":4166.1543,"HeroDamageTaken":5516.8145,"GoldFromMonsters":4050,"GoldFromTreasure":100,"HealingGivenSelf":3008.9395,"EffectiveDamageDone":40413.004,"EffectiveDamageTaken":6547.2095,"HeroEffectiveDamageDone":3042.406,"HeroEffectiveDamageTaken":5495.7095},"created_at":"2025-02-09T01:44:37.000000Z","updated_at":"2025-02-09T01:44:37.000000Z","player_id_encoded":"03874b276c5de0c26ee4c224f7796640","platform":{"id":1,"code":"steam"},"hero":{"asset_id":"hero:hookguy","head_image_url":"https:\/\/assets.supervive.app\/191ad0f3-550d-46d8-aaae-f2d8f37c65e0\/assets\/hunters_squared\/kingpin.webp"}}],"meta":{"current_page":1,"per_page":15,"total":769,"last_page":52}}